{
    "company": false,
    "title": "Tipps für dein Bewerbungsschreiben",
    "abstract": "Du, dein Traumjob und warum ihr zusammengehört. Wenn die Stelle stimmt, gibt es da viel zu erzählen. Eine Seite reicht aber, um den Job zu bekommen.",
    "published": "2020-05-05 12:00:00",
    "author": {
      "name": "Jonas Reiter",
      "avatar": "https://static.enwork.de/blog-authors/jonas-reiter.png",
      "position": "Master of Words and Arousal"
    },
    "persona": [
      {
        "id": "title",
        "header": {
          "1/1": {
            "midSrc": "https://static.enwork.de/blog/bewerbungsschreiben-kandidaten/1-1-medium-bewerbungsschreiben-titelbild.jpg",
            "src": "https://static.enwork.de/blog/bewerbungsschreiben-kandidaten/1-1-high-bewerbungsschreiben-titelbild.jpg",
            "alt": "Junge dunkelhäutige Frau sitzt am Schreibtisch, schaut auf ihr Bewerbungsschreiben und freut sich"
          },
          "32/10": {
            "midSrc": "https://static.enwork.de/blog/bewerbungsschreiben-kandidaten/32-10-medium-bewerbungsschreiben-titelbild.jpg",
            "src": "https://static.enwork.de/blog/bewerbungsschreiben-kandidaten/32-10-high-bewerbungsschreiben-titelbild.jpg",
            "alt": "Junge dunkelhäutige Frau sitzt am Schreibtisch, schaut auf ihr Bewerbungsschreiben und freut sich"
          },
          "191/100": {
            "midSrc": "https://static.enwork.de/blog/bewerbungsschreiben-kandidaten/191-100-medium-bewerbungsschreiben-titelbild.jpg",
            "src": "https://static.enwork.de/blog/bewerbungsschreiben-kandidaten/191-100-high-bewerbungsschreiben-titelbild.jpg",
            "alt": "Junge dunkelhäutige Frau sitzt am Schreibtisch, schaut auf ihr Bewerbungsschreiben und freut sich"
          }
        },
        "cta": {
          "title": "Erstelle dein Bewerbungsschreiben in wenigen Minuten",
          "buttons": [
            {
              "label": "Jetzt loslegen",
              "href": "https://app.enwork.de/",
              "theme": "white"
            }
          ]
        }
      }
    ],
    "keywords": [
    ],
    "relatedPosts": [
    ]
  }