{
    "title": "Wie bleibe ich auf dem Arbeitsmarkt relevant?",
    "abstract": "Auch die Arbeitswelt steht nicht still. Wie soll man da nicht hinten runter fallen, wenn man im Job festhängt? Hier erklären wir, wie Du auf dem Arbeitsmarkt relevant bleibst.",
    "published": "2020-03-02 12:00:00",
    "author": {
      "name": "Jonas Reiter",
      "avatar": "https://static.enwork.de/blog-authors/jonas-reiter.png",
      "position": "Master of Words and Arousal"
    },
    "persona": [
      {
        "id": "elyas",
        "header": {
          "1/1": {
            "midSrc": "https://static.enwork.de/photos/personas/candidates/1-1-medium-kompetenzen-elyas.jpg",
            "src": "https://static.enwork.de/photos/personas/candidates/1-1-high-kompetenzen-elyas.jpg",
            "alt": "Dunkelhaariger, junger Mann vor Whiteboard lächelt und trifft die Aussage, dass er seine Kompetenzen ausgebaut hat"
          },
          "32/10": {
            "midSrc": "https://static.enwork.de/photos/personas/candidates/32-10-medium-kompetenzen-elyas.jpg",
            "src": "https://static.enwork.de/photos/personas/candidates/32-10-high-kompetenzen-elyas.jpg",
            "alt": "Dunkelhaariger, junger Mann vor Whiteboard lächelt und trifft die Aussage, dass er seine Kompetenzen ausgebaut hat"
          },
          "191/100": {
            "midSrc": "https://static.enwork.de/photos/personas/candidates/191-100-medium-kompetenzen-elyas.jpg",
            "src": "https://static.enwork.de/photos/personas/candidates/191-100-high-kompetenzen-elyas.jpg",
            "alt": "Dunkelhaariger, junger Mann vor Whiteboard lächelt und trifft die Aussage, dass er seine Kompetenzen ausgebaut hat"
          }
        },
        "cta": {
          "title": "Bleib auf dem Arbeitsmarkt relevant",
          "buttons": [
            {
              "label": "Jetzt enwork entdecken",
              "href": "/?prsn=elyas",
              "theme": "white"
            }
          ]
        }
      },
      {
        "id": "suzume",
        "header": {
          "1/1": {
            "midSrc": "https://static.enwork.de/photos/personas/candidates/1-1-medium-kompetenzen-suzume.jpg",
            "src": "https://static.enwork.de/photos/personas/candidates/1-1-high-kompetenzen-suzume.jpg",
            "alt": "Junge Asiatin mit Kopfhörern sitzt am Schreibtisch, lächelt, und trifft die Aussage, dass sie ihre Kompetenzen ausgebaut hat"
          },
          "32/10": {
            "midSrc": "https://static.enwork.de/photos/personas/candidates/32-10-medium-kompetenzen-suzume.jpg",
            "src": "https://static.enwork.de/photos/personas/candidates/32-10-high-kompetenzen-suzume.jpg",
            "alt": "Junge Asiatin mit Kopfhörern sitzt am Schreibtisch, lächelt, und trifft die Aussage, dass sie ihre Kompetenzen ausgebaut hat"
          },
          "191/100": {
            "midSrc": "https://static.enwork.de/photos/personas/candidates/1-1-medium-kompetenzen-suzume.jpg",
            "src": "https://static.enwork.de/photos/personas/candidates/191-100-high-kompetenzen-suzume.jpg",
            "alt": "Junge Asiatin mit Kopfhörern sitzt am Schreibtisch, lächelt, und trifft die Aussage, dass sie ihre Kompetenzen ausgebaut hat"
          }
        },
        "cta": {
          "title": "Bleib auf dem Arbeitsmarkt relevant",
          "buttons": [
            {
              "label": "Jetzt enwork entdecken",
              "href": "/?prsn=suzume",
              "theme": "white"
            }
          ]
        }
      }
    ],
    "keywords": [
    ],
    "relatedPosts": [
    ]
  }