{
    "title": "Wie bewerbe ich mich auf ein Praktikum?",
    "abstract": "Du willst eigentlich nur erste Berufserfahrung im Praktikum sammeln. Muss der Papierkram davor einem Gesetzesentwurf gleichen? Du kannst dich auch einfacher bewerben.",
    "published": "2020-03-02 12:00:00",
    "author": {
      "name": "Jonas Reiter",
      "avatar": "https://static.enwork.de/blog-authors/jonas-reiter.png",
      "position": "Master of Words and Arousal"
    },
    "persona": [
      {
        "id": "lennardt",
        "header": {
          "1/1": {
            "midSrc": "https://static.enwork.de/photos/personas/candidates/1-1-medium-praktikum-lennardt.jpg",
            "src": "https://static.enwork.de/photos/personas/candidates/1-1-high-praktikum-lennardt.jpg",
            "alt": "Jugendlicher in Jeanshemd und Basecap beugt sich über Werkbank und vermisst ein Stück Holz. Er trifft die Aussage, dass er Berufserfahrung macht"
          },
          "32/10": {
            "midSrc": "https://static.enwork.de/photos/personas/candidates/32-10-medium-praktikum-lennardt.jpg",
            "src": "https://static.enwork.de/photos/personas/candidates/32-10-high-praktikum-lennardt.jpg",
            "alt": "Jugendlicher in Jeanshemd und Basecap beugt sich über Werkbank und vermisst ein Stück Holz. Er trifft die Aussage, dass er Berufserfahrung macht"
          },
          "191/100": {
            "midSrc": "https://static.enwork.de/photos/personas/candidates/191-100-medium-praktikum-lennardt.jpg",
            "src": "https://static.enwork.de/photos/personas/candidates/191-100-high-praktikum-lennardt.jpg",
            "alt": "Jugendlicher in Jeanshemd und Basecap beugt sich über Werkbank und vermisst ein Stück Holz. Er trifft die Aussage, dass er Berufserfahrung macht"
          }
        },
        "cta": {
          "title": "Finde das passende Praktikum",
          "buttons": [
            {
              "label": "Jetzt enwork entdecken",
              "href": "/?prsn=lennardt",
              "theme": "white"
            }
          ]
        }
      },
      {
        "id": "alicia",
        "header": {
          "1/1": {
            "midSrc": "https://static.enwork.de/photos/personas/candidates/1-1-medium-praktikum-alicia.jpg",
            "src": "https://static.enwork.de/photos/personas/candidates/1-1-high-praktikum-alicia.jpg",
            "alt": "Jugendliche mit Dreadlocks und Septum lächelt freundlich und trifft die Aussage, dass sie Berufserfahrung macht"
          },
          "32/10": {
            "midSrc": "https://static.enwork.de/photos/personas/candidates/32-10-medium-praktikum-alicia.jpg",
            "src": "https://static.enwork.de/photos/personas/candidates/32-10-high-praktikum-alicia.jpg",
            "alt": "Jugendliche mit Dreadlocks und Septum lächelt freundlich und trifft die Aussage, dass sie Berufserfahrung macht"
          },
          "191/100": {
            "midSrc": "https://static.enwork.de/photos/personas/candidates/191-100-medium-praktikum-alicia.jpg",
            "src": "https://static.enwork.de/photos/personas/candidates/191-100-high-praktikum-alicia.jpg",
            "alt": "Jugendliche mit Dreadlocks und Septum lächelt freundlich und trifft die Aussage, dass sie Berufserfahrung macht"
          }
        },
        "cta": {
          "title": "Finde das passende Praktikum",
          "buttons": [
            {
              "label": "Jetzt enwork entdecken",
              "href": "/?prsn=alicia",
              "theme": "white"
            }
          ]
        }
      }
    ],
    "keywords": [
    ],
    "relatedPosts": [
    ]
  }