{
    "company": true,
    "title": "Die typischen Fallstricke bei Stellenanzeigen",
    "abstract": "Der Erfolg einer Stellenanzeige hängt von verschiedenen Faktoren ab. Dabei können selbst Kleinigkeiten große Wirkung haben – bis hin zu rechtlichen Konsequenzen.",
    "published": "2020-04-16 12:00:00",
    "author": {
      "name": "Jonas Reiter",
      "avatar": "https://static.enwork.de/blog-authors/jonas-reiter.png",
      "position": "Master of Words and Arousal"
    },
    "persona": [
      {
        "id": "title",
        "header": {
          "1/1": {
            "midSrc": "https://static.enwork.de/blog/stellenanzeigen-unternehmen/subsections/fallstricke/1-1-medium-stellenanzeigen-fallstrick-titelbild.jpg",
            "src": "https://static.enwork.de/blog/stellenanzeigen-unternehmen/subsections/fallstricke/1-1-high-stellenanzeigen-fallstrick-titelbild.jpg",
            "alt": "Auf dem Boden liegendes Seil"
          },
          "32/10": {
            "midSrc": "https://static.enwork.de/blog/stellenanzeigen-unternehmen/subsections/fallstricke/32-10-medium-stellenanzeigen-fallstrick-titelbild.jpg",
            "src": "https://static.enwork.de/blog/stellenanzeigen-unternehmen/subsections/fallstricke/32-10-high-stellenanzeigen-fallstrick-titelbild.jpg",
            "alt": "Auf dem Boden liegendes Seil"
          },
          "191/100": {
            "midSrc": "https://static.enwork.de/blog/stellenanzeigen-unternehmen/subsections/fallstricke/191-100-medium-stellenanzeigen-fallstrick-titelbild.jpg",
            "src": "https://static.enwork.de/blog/stellenanzeigen-unternehmen/subsections/fallstricke/191-100-high-stellenanzeigen-fallstrick-titelbild.jpg",
            "alt": "Auf dem Boden liegendes Seil"
          }
        },
        "cta": {
          "title": "Schreibe deine Stellenanzeige in wenigen Minuten",
          "buttons": [
            {
              "label": "Jetzt loslegen",
              "href": "https://app.enwork.de/",
              "theme": "white"
            }
          ]
        }
      }
    ],
    "keywords": [
    ],
    "relatedPosts": [
        "stellenanzeigen-unternehmen/subsections/uebersichtlichkeit",
        "stellenanzeigen-unternehmen/subsections/verstaendlichkeit",
        "stellenanzeigen-unternehmen/subsections/reichweite"
    ]
  }