{
    "company": true,
    "title": "Mehr Reichweite für deine Stellenanzeige",
    "abstract": "Stellenanzeigen bieten viel Potenzial, optimiert zu werden. Doch alle Arbeit ist umsonst, wenn niemand sie findet. Mit mehr Reichweite, erreichst Du mehr passende Bewerber.",
    "published": "2020-04-23 12:00:00",
    "author": {
      "name": "Jonas Reiter",
      "avatar": "https://static.enwork.de/blog-authors/jonas-reiter.png",
      "position": "Master of Words and Arousal"
    },
    "persona": [
      {
        "id": "title",
        "header": {
          "1/1": {
            "midSrc": "https://static.enwork.de/blog/stellenanzeigen-unternehmen/subsections/reichweite/1-1-medium-stellenanzeigen-reichweite-titelbild.jpg",
            "src": "https://static.enwork.de/blog/stellenanzeigen-unternehmen/subsections/reichweite/1-1-high-stellenanzeigen-reichweite-titelbild.jpg",
            "alt": "Beleuchtete Tastatur"
          },
          "32/10": {
            "midSrc": "https://static.enwork.de/blog/stellenanzeigen-unternehmen/subsections/reichweite/32-10-medium-stellenanzeigen-reichweite-titelbild.jpg",
            "src": "https://static.enwork.de/blog/stellenanzeigen-unternehmen/subsections/reichweite/32-10-high-stellenanzeigen-reichweite-titelbild.jpg",
            "alt": "Beleuchtete Tastatur"
          },
          "191/100": {
            "midSrc": "https://static.enwork.de/blog/stellenanzeigen-unternehmen/subsections/reichweite/191-100-medium-stellenanzeigen-reichweite-titelbild.jpg",
            "src": "https://static.enwork.de/blog/stellenanzeigen-unternehmen/subsections/reichweite/191-100-high-stellenanzeigen-reichweite-titelbild.jpg",
            "alt": "Beleuchtete Tastatur"
          }
        },
        "cta": {
          "title": "Schreibe deine Stellenanzeige in wenigen Minuten",
          "buttons": [
            {
              "label": "Jetzt loslegen",
              "href": "https://app.enwork.de/",
              "theme": "white"
            }
          ]
        }
      }
    ],
    "keywords": [
    ],
    "relatedPosts": [
        "stellenanzeigen-unternehmen/subsections/uebersichtlichkeit",
        "stellenanzeigen-unternehmen/subsections/verstaendlichkeit",
        "stellenanzeigen-unternehmen/subsections/fallstricke"
    ]
  }