{
    "company": true,
    "title": "Stellenanzeigen schreiben erkärt",
    "abstract": "Ohne eine Stellenanzeige bleibt die offene Stelle im Unternehmen meist unbesetzt. Dabei müssen sie nicht lästig sein, sondern sind vielmehr eine Chance.",
    "published": "2020-03-26 12:00:00",
    "author": {
      "name": "Jonas Reiter",
      "avatar": "https://static.enwork.de/blog-authors/jonas-reiter.png",
      "position": "Master of Words and Arousal"
    },
    "persona": [
      {
        "id": "title",
        "header": {
          "1/1": {
            "midSrc": "https://static.enwork.de/blog/stellenanzeigen-unternehmen/1-1-medium-stellenanzeigen-schreiben-titelbild.jpg",
            "src": "https://static.enwork.de/blog/stellenanzeigen-unternehmen/1-1-high-stellenanzeigen-schreiben-titelbild.jpg",
            "alt": "Halb aufgeklappter Laptop dessen Tastatur durch den Bildschirm angeleuchtet wird"
          },
          "32/10": {
            "midSrc": "https://static.enwork.de/blog/stellenanzeigen-unternehmen/32-10-medium-stellenanzeigen-schreiben-titelbild.jpg",
            "src": "https://static.enwork.de/blog/stellenanzeigen-unternehmen/32-10-high-stellenanzeigen-schreiben-titelbild.jpg",
            "alt": "Halb aufgeklappter Laptop dessen Tastatur durch den Bildschirm angeleuchtet wird"
          },
          "191/100": {
            "midSrc": "https://static.enwork.de/blog/stellenanzeigen-unternehmen/191-100-medium-stellenanzeigen-schreiben-titelbild.jpg",
            "src": "https://static.enwork.de/blog/stellenanzeigen-unternehmen/191-100-high-stellenanzeigen-schreiben-titelbild.jpg",
            "alt": "Halb aufgeklappter Laptop dessen Tastatur durch den Bildschirm angeleuchtet wird"
          }
        },
        "cta": {
          "title": "Schreibe deine Stellenanzeige in wenigen Minuten",
          "buttons": [
            {
              "label": "Jetzt loslegen",
              "href": "https://app.enwork.de/",
              "theme": "white"
            }
          ]
        }
      }
    ],
    "keywords": [
    ],
    "relatedPosts": [
        "stellenanzeigen-unternehmen/subsections/uebersichtlichkeit",
        "stellenanzeigen-unternehmen/subsections/verstaendlichkeit",
        "stellenanzeigen-unternehmen/subsections/fallstricke"
    ]
  }