{
    "company": false,
    "title": "Dein Lebenslauf – Die Visitenkarte für Bewerbungen",
    "abstract": "Zu deiner Bewerbung gehört dein Lebenslauf. Als erster Eindruck von dir fasst er zusammen, warum Du zur Stelle passt. Von Inhalt bis zum Design gibt es dabei einiges zu beachten.",
    "published": "2020-03-24 12:00:00",
    "author": {
      "name": "Jonas Reiter",
      "avatar": "https://static.enwork.de/blog-authors/jonas-reiter.png",
      "position": "Master of Words and Arousal"
    },
    "persona": [
      {
        "id": "title",
        "header": {
          "1/1": {
            "midSrc": "https://static.enwork.de/blog/lebenslauf-kandidaten/1-1-medium-grundlagen-lebenslauf-titelbild.jpg",
            "src": "https://static.enwork.de/blog/lebenslauf-kandidaten/1-1-high-grundlagen-lebenslauf-titelbild.jpg",
            "alt": "Kugelschreiber liegt auf einem Lebenslauf für eine Bewerbung"
          },
          "32/10": {
            "midSrc": "https://static.enwork.de/blog/lebenslauf-kandidaten/32-10-medium-grundlagen-lebenslauf-titelbild.jpg",
            "src": "https://static.enwork.de/blog/lebenslauf-kandidaten/32-10-high-grundlagen-lebenslauf-titelbild.jpg",
            "alt": "Kugelschreiber liegt auf einem Lebenslauf für eine Bewerbung"
          },
          "191/100": {
            "midSrc": "https://static.enwork.de/blog/lebenslauf-kandidaten/191-100-medium-grundlagen-lebenslauf-titelbild.jpg",
            "src": "https://static.enwork.de/blog/lebenslauf-kandidaten/191-100-high-grundlagen-lebenslauf-titelbild.jpg",
            "alt": "Kugelschreiber liegt auf einem Lebenslauf für eine Bewerbung"
          }
        },
        "cta": {
          "title": "Erstelle deinen Lebenslauf in wenigen Minuten",
          "buttons": [
            {
              "label": "Jetzt loslegen",
              "href": "https://app.enwork.de/",
              "theme": "white"
            }
          ]
        }
      }
    ],
    "keywords": [
    ],
    "relatedPosts": [
        "lebenslauf-kandidaten/subsections/profilbild",
        "lebenslauf-kandidaten/subsections/inhalte",
        "lebenslauf-kandidaten/subsections/kompetenzen"
    ]
  }