{
  "unfurl": {
    "title": "enwork - Vereinbare einen Anruf mit unserem Vertriebsteam",
    "description": "Unser Vertriebsteam klärt alle deine Fragen rund um enwork schnell und zuverlässig. Vereinbare jetzt einen Anruf.",
    "header": "https://static.enwork.de/enwork-logos/1-1-high-enwork-compact-logo-white-blue-gradient-background.jpg",
    "headerLarge": "https://static.enwork.de/enwork-logos/1-1-high-enwork-compact-logo-white-blue-gradient-background.jpg",
    "url": "https://www.enwork.de/contact-sales",
    "labels": [
      {
        "label": "Unser #",
        "value": "teamenwork"
      }
    ],
    "type": "website"
  },
  "sections": [
    {
      "type": "two-column",
      "tinted": true,
      "left": [
        {
          "type": "checked-items",
          "tinted": true,
          "title": "Deine Vorteile mit enwork",
          "items": [
            "Einfache Prozesse",
            "Innovatives Matching-System",
            "Hochgradig automatisiert",
            "Erfolgsbasiertes Pricing",
            "DSGVO konform",
            "Hosting in Deutschland",
            "Fortlaufende Überprüfung des Datenschutzes"
          ]
        }
      ],
      "right": {
        "type": "zoho-form",
        "tinted": true,
        "title": "Anruf vereinbaren",
        "disclaimer": "Du hast Fragen rund um enwork? Unser Vertriebsteam hat die Antworten. Vereinbare jetzt einen Anruf. Teile uns mit was dich beschäftigt und wir helfen dir schnell und zuverlässig weiter.",
        "script": "<script src='https://crm.zoho.eu/crm/WebFormServeServlet?rid=d1cfd610d0babad0916836a09e2ef62d4ade2910844af8aa6f72bb2bbe4a7926gid551f029fb7fd60fe700911b0798d94694eec31870021ddddbd24eaef2e065712&script=$sYG'></script>"
      }
    },
    {
      "type": "image-grid",
      "tiny": false,
      "testimonials": true,
      "tinted": true,
      "title": "Erfolge unserer Nutzer",
      "subtitle": "enwork ist dafür da, dass neue Mitarbeiter einzustellen leicht von der Hand geht. Lass dich von denjenigen inspirieren, die wir bereits unterstützen durften.",
      "larger": false,
      "images": [
        {
          "midSrc": "https://static.enwork.de/testimonial-media/1-1-medium-testimonial-carsten.jpg",
          "src": "https://static.enwork.de/testimonial-media/1-1-high-testimonial-carsten.jpg",
          "alt": "Carsten Priebs, CIO Randstad Deutschland, sitzt an einem Tisch und lächelt",
          "title": "Carsten Priebs, CIO Randstad Deutschland GmbH & Co. KG",
          "subtitle": "enwork ist ein innovatives Startup, dessen Plattform einfache und schnelle Bewerbungsprozesse für jedermann ermöglicht."
        },
        {
          "midSrc": "https://static.enwork.de/testimonial-media/1-1-medium-testimonial-kim-simon.jpg",
          "src": "https://static.enwork.de/testimonial-media/1-1-high-testimonial-kim-simon.jpg",
          "alt": "Doktor Kim Simon Strunk, tätig an der Universität Passau, lächelnd",
          "title": "Dr. Kim Simon Strunk, Universität Passau",
          "subtitle": "Digitalisierung im Recruiting ist mehr, als nur PDF-Bewerbungen zu akzeptieren. enwork findet mit smartem Matching die perfekten Kandidaten für die passende Stelle."
        },
        {
          "midSrc": "https://static.enwork.de/testimonial-media/1-1-medium-testimonial-michael.jpg",
          "src": "https://static.enwork.de/testimonial-media/1-1-high-testimonial-michael.jpg",
          "alt": "Michael Schmitz, Geschäftsführer der variant GmbH, lächelnd",
          "title": "Michael Schmitz, Geschäftsführer variant GmbH",
          "subtitle": "enwork ermöglicht unserer Schreinerei ein professionelles Auftreten gegenüber möglichen Bewerbern. Ganz einfach und schnell aufgesetzt. Das Gesamtkonzept von enwork weiß zu überzeugen."
        }
      ]
    }
  ],
  "sweep": {
    "title": "Erlebe enwork in Aktion",
    "buttons": [
      {
        "label": "Jetzt Demo anfordern",
        "href": "/request-demo",
        "theme": "white"
      }
    ],
    "tinted": true
  }
}