{
  "unfurl": {
    "title": "enwork - Flexible Preismodelle für Unternehmen",
    "description": "enwork ist für dich und dein Team kostenfrei. Sobald Du eine Stellenanzeige schaltest, zahlst du erst bei Erfolg.",
    "header": "https://static.enwork.de/enwork-logos/1-1-high-enwork-compact-logo-white-blue-gradient-background.jpg",
    "headerLarge": "https://static.enwork.de/enwork-logos/1-1-high-enwork-compact-logo-white-blue-gradient-background.jpg",
    "url": "https://www.enwork.de/pricing-company",
    "labels": [
      {
        "label": "Unser #",
        "value": "teamenwork"
      }
    ],
    "type": "website"
  },
  "sections": [
    {
      "type": "pricing",
      "tinted": true,
      "title": "Dein Unternehmen. Deine Entscheidung.",
      "disclaimer": "enwork ist für dich und dein Team kostenfrei. Sobald Du eine Stellenanzeige schaltest, hast Du die Möglichkeit, dich zwischen den beiden Optionen Pay per Application oder Pay per Choice zu entscheiden.",
      "pricingOptions": [
        {
          "title": "Pay per Application",
          "disclaimer": "Du bezahlst pro eingegangener Bewerbung. Durch dein festgelegtes Budget hast du jederzeit volle Kostenkontrolle.",
          "benefits": [
            "Öffentliches Unternehmensprofil",
            "Synchronisation mit Karriereseite",
            "Budget selbst bestimmen",
            "One-Klick-Bewerbungen",
            "Aktive Kandidatenansprache",
            "Vollverschlüsselte Kommunikation",
            "Prozessverwaltung",
            "Teamverwaltung"
          ]
        },
        {
          "title": "Pay per Choice",
          "disclaimer": "Du bezahlst nur für Bewerbungen, die du in deinem Bewerbungsprozess weiterverfolgen möchtest.",
          "benefits": [
            "Öffentliches Unternehmensprofil",
            "Synchronisation mit Karriereseite",
            "Unbegrenzt Bewerbungen erhalten",
            "One-Klick-Bewerbungen",
            "Aktive Kandidatenansprache",
            "Vollverschlüsselte Kommunikation",
            "Prozessverwaltung",
            "Teamverwaltung"
          ]
        }
      ],
      "buttons": [
        {
          "label": "Vertrieb kontaktieren",
          "href": "/contact-sales",
          "theme": "primary"
        },
        {
          "label": "Demo anfordern",
          "href": "/request-demo",
          "theme": "primary",
          "outlined": true
        }
      ]
    },
    {
      "type": "collapsed-data",
      "tinted": true,
      "title": "FAQ",
      "items": [
        {
          "title": "Was bedeutet enwork ist kostenfrei?",
          "text": "Dir stehen alle Funktionen von enwork, wie z.B. die Prozess- und Teamverwaltung, immer kostenfrei zur Verfügung. Du bezahlst lediglich für die Kandidaten, die aktiv in deinen Bewerbungsprozess eingebunden sind. Hierfür stellen wir dir die beiden Abrechnungsmodelle Pay per Application sowie Pay per Choice zur Verfügung."
        },
        {
          "title": "Wieso finde ich hier keine Preisangaben?",
          "text": "Unser Ziel bei enwork ist es, dir faire Preise zu bieten. Es macht zum Beispiel einen Unterschied, ob du jemanden als Festanstellung oder Auszubildenden suchst. Aus diesem Grund sind die Preise auf Basis vieler verschiedener Faktoren auf dich angepasst. Sobald du eine Stellenanzeige in enwork erstellst, kannst du die kalkulierten Kosten dafür einsehen. Für eine individuelle Einschätzung der Kosten kannst du dich jederzeit an unser Vertriebsteam wenden."
        },
        {
          "title": "Unterscheiden sich die Abrechnungsmodelle in ihrem Funktionsumfang?",
          "text": "Nein, die Abrechnungsmodelle Pay per Application und Pay per Choice haben keinen Einfluss auf den Funktionsumfang von enwork."
        },
        {
          "title": "Welches Abrechnungsmodell ist besser für mich?",
          "text": "Es gibt kein besser oder schlechter. Jede Stellenausschreibung ist anders und du kennst dein Unternehmen am besten. Deswegen ist es unsere Philosophie, dir alle Entscheidungsfreiheiten zu bieten und dir beide Abrechnungsmodelle zur Verfügung zu stellen. Deine individuellen Fragen können wir jederzeit gemeinsam in einem persönlichen Gespräch durchgehen."
        },
        {
          "title": "Gibt es Rabatte für Startups und NGOs?",
          "text": "Ja, denn wir von enwork denken, dass es sehr viel mehr Engagement in diesem Bereich geben sollte. Deshalb möchten wir dich ganz besonders unterstützen. Kontaktiere gerne unser Vertriebsteam für einen möglich Rabatt."
        },
        {
          "title": "Was brauche ich, um mit enwork zu starten?",
          "text": "Ganz einfach: Nichts. Melde dich an, lade dein restliches Team ein, und schon kannst du damit beginnen, deine erste Stellenanzeige anzulegen. Keine aufwendige Implementierung, kein lästiges Warten oder andere unerfreuliche Überraschungen. So sorgen wir dafür, dass Du ohne viel Aufwand die idealen Mitarbeiter findest."
        }
      ]
    }
  ],
  "sweep": {
    "title": "Ohne viel Aufwand die idealen Mitarbeiter finden",
    "buttons": [
      {
        "label": "Jetzt loslegen",
        "href": "https://app.enwork.de/sign-up",
        "theme": "white"
      },
      {
        "label": "Vertrieb kontaktieren",
        "href": "/contact-sales",
        "theme": "white"
      }
    ],
    "tinted": true
  }
}
