{
  "unfurl": {
    "title": "enwork - Datenschutzerklärung",
    "description": "Datenschutz ist uns bei enwork extrem wichtig. Lies hier, warum und wofür wir deine persönlichen Daten benötigen.",
    "header": "https://static.enwork.de/illustrations/enwork-illustration-gdpr.svg",
    "headerLarge": "https://static.enwork.de/illustrations/enwork-illustration-gdpr.svg",
    "url": "https://www.enwork.de/privacy",
    "labels": [
      {
        "label": "Unser #",
        "value": "teamenwork"
      }
    ],
    "type": "website",
    "noIndex": true
  },
  "sections": [
    {
      "type": "large-media",
      "tinted": false,
      "mediaPosition": "right",
      "title": "Datenschutz",
      "text": "Datenschutz ist uns bei enwork extrem wichtig. Nachfolgend findest du unsere Datenschutzerklärung in welcher wir dir genau erklären, warum und wofür wir deine persönlichen Daten benötigen.",
      "largeText": true,
      "buttons": [
        {
          "label": "Als PDF herunterladen",
          "href": "https://static.enwork.de/legal-documents/privacy-policy/privacy-policy-de.pdf",
          "openNewTab": true
        }
      ],
      "image": {
        "src": "https://static.enwork.de/illustrations/enwork-illustration-gdpr.svg"
      }
    },
    {
      "type": "markdown",
      "tinted": true,
      "text": "Datenschutzerklärung\n====================\n\nVerantwortliche Stelle im Sinne der Datenschutzgesetze, insbesondere der\nEU-Datenschutzgrundverordnung (DSGVO), ist:\\\n\\\nenwork GmbH\\\nGerichtsweg 8a\\\n35039 Marburg\\\nDeutschland\n\nDeine Betroffenenrechte\n-----------------------\n\nUnter den angegebenen Kontaktdaten unseres Datenschutzbeauftragten\nkannst du jederzeit folgende Rechte ausüben:\n\n-   Auskunft über deine bei uns gespeicherten Daten und deren\n    Verarbeitung (Artikel 15 DSGVO),\n\n-   Berichtigung unrichtiger personenbezogener Daten (Artikel 16 DSGVO),\n\n-   Löschung deiner bei uns gespeicherten Daten (Artikel 17 DSGVO),\n\n-   Einschränkung der Datenverarbeitung, sofern wir deine Daten aufgrund\n    gesetzlicher Pflichten noch nicht löschen dürfen (Artikel 18 DSGVO)\n\n-   Widerspruch gegen die Verarbeitung deiner Daten bei uns (Artikel 21\n    DSGVO) und\n\n-   Datenübertragbarkeit, sofern du in die Datenverarbeitung\n    eingewilligt hast oder einen Vertrag mit uns abgeschlossen hast\n    (Artikel 20 DSGVO).\n\nSofern du uns eine Einwilligung erteilt hast, kannst du diese jederzeit\nmit Wirkung für die Zukunft widerrufen.\\\n\\\nDu kannst dich jederzeit mit einer Beschwerde an eine Aufsichtsbehörde\nwenden, z.B. an die zuständige Aufsichtsbehörde des Bundeslandes deines\nWohnsitzes oder an die für uns als verantwortliche Stelle zuständige\nBehörde.\\\nEine Liste der Aufsichtsbehörden (für den nichtöffentlichen Bereich) mit\nAnschrift findest du unter:\n<https://www.bfdi.bund.de/DE/Infothek/Anschriften_Links/anschriften_links-node.html>\n\nErfassung allgemeiner Informationen beim Besuch unserer Website\n---------------------------------------------------------------\n\n### Art und Zweck der Verarbeitung\n\nWenn du auf unsere Website zugreifst, das heißt, wenn du dich nicht\nregistrierst oder anderweitig Informationen übermittelst, werden\nautomatisch Informationen allgemeiner Natur erfasst. Diese Informationen\n(Server-Logfiles) beinhalten etwa die Art des Webbrowsers, das\nverwendete Betriebssystem, den Domainnamen deines\nInternet-Service-Providers, deine IP-Adresse und ähnliches.\\\nDiese Informationen werden insbesondere zu folgenden Zwecken\nverarbeitet:\n\n-   Sicherstellung eines problemlosen Verbindungsaufbaus der Website,\n\n-   Sicherstellung einer reibungslosen Nutzung unserer Website,\n\n-   Auswertung der Systemsicherheit und Systemstabilität sowie\n\n-   zu weiteren administrativen Zwecken.\n\nWir verwenden deine Daten nicht, um Rückschlüsse auf deine Person zu\nziehen.\\\nDie oben genannten Informationen dieser Art werden von uns\ngegebenenfalls statistisch ausgewertet, um unseren Internetauftritt und\ndie dahinterliegende Technik zu optimieren.\n\n### Rechtsgrundlage\n\nDie Verarbeitung erfolgt gemäß Artikel 6 Absatz 1 littera f DSGVO auf\nBasis unseres berechtigten Interesses an der Verbesserung der Stabilität\nund Funktionalität unserer Website.\n\n### Empfänger\n\nEmpfänger der Daten sind gegebenenfalls technische Dienstleister, die\nfür den Betrieb und die Wartung unserer Website als Auftragsverarbeiter\ntätig werden.\n\n### Speicherdauer\n\nDie Daten werden gelöscht, sobald diese für den Zweck der Erhebung nicht\nmehr erforderlich sind. Dies ist für die Daten, die der Bereitstellung\nder Website dienen, grundsätzlich der Fall, wenn die jeweilige Sitzung\nbeendet ist.\n\n### Bereitstellung vorgeschrieben oder erforderlich\n\nDie Bereitstellung der vorgenannten personenbezogenen Daten ist weder\ngesetzlich noch vertraglich vorgeschrieben. Ohne die IP-Adresse ist\njedoch der Dienst und die Funktionsfähigkeit unserer Website nicht\ngewährleistet. Zudem können einzelne Dienste und Services nicht\nverfügbar oder eingeschränkt sein. Aus diesem Grund ist ein Widerspruch\nausgeschlossen.\n\nCookies\n-------\n\n### Art und Zweck der Verarbeitung\n\nWie viele andere Websites verwenden auch wir sogenannte \"Cookies\". Bei\nCookies handelt es sich um kleine Textdateien, die auf deinem Endgerät\n(Laptop, Tablet, Smartphone o.ä.) gespeichert werden, wenn du unserer\nWebsite besuchst. Hierdurch erhalten wir bestimmte Daten wie z.B.\nIP-Adresse, deinen verwendeten Browser und Betriebssystem.\\\nCookies können nicht verwendet werden, um Programme zu starten oder\nViren auf einen Computer zu übertragen. Anhand der in Cookies\nenthaltenen Informationen können wir dir die Navigation erleichtern und\ndie korrekte Anzeige unserer Website ermöglichen.\\\n\\\nIn keinem Fall werden die von uns erfassten Daten an Dritte\nweitergegeben oder ohne deine Einwilligung eine Verknüpfung mit\npersonenbezogenen Daten hergestellt.\\\nNatürlich kannst du unsere Website grundsätzlich auch ohne Cookies\nbetrachten. Internet-Browser sind regelmäßig so eingestellt, dass sie\nCookies akzeptieren. Im Allgemeinen kannst du die Verwendung von Cookies\njederzeit über die Einstellungen deines Browsers deaktivieren. Bitte\nverwende die Hilfefunktionen deines Internet-Browsers, um zu erfahren,\nwie du diese Einstellungen ändern kannst. Bitte beachte, dass einzelne\nFunktionen unserer Website möglicherweise nicht funktionieren, wenn du\ndie Verwendung von Cookies deaktiviert hast.\n\n### Speicherdauer und eingesetzte Cookies\n\nSoweit du uns durch deine Browsereinstellungen oder Zustimmung die\nVerwendung von Cookies erlaubst, können folgende Cookies auf unseren\nWebsites zum Einsatz kommen:\\\n\\\n\n-   enworkCookieConsent\n\n    -   Host:\\\n        enwork.de\n\n    -   Gruppe:\\\n        Notwendige Cookies\n\n    -   Speicherdauer:\\\n        12 Monate\n\n    -   Erläuterung:\\\n        Dieser Cookie wird gesetzt, um deine Cookie Präferenzen\n        abzuspeichern und bei zukünftigen Besuchen unserer Website auf\n        diese Präferenzen zurückzugreifen. Du kannst deine Cookie\n        Präferenzen jederzeit überarbeiten.\n\n-   \\_ga\n\n    -   Host:\\\n        enwork.de\n\n    -   Gruppe:\\\n        Performance Cookies\n\n    -   Speicherdauer:\\\n        24 Monate\n\n    -   Erläuterung:\\\n        Dieser Cookie ist mit Google Universal Analytics verknüpft.\n        Dieser Cookie wird verwendet, um Benutzer anonym und eindeutig\n        voneinander mittels einer zufällig generierten Client ID zu\n        unterscheiden. Diese Client ID ist in jeder einzelnen Anfrage\n        enthalten und wird dazu genutzt, Benutzer-, Sitzungs-, und\n        Kampagnenanalysen durchzuführen.\n\n-   \\_gid\n\n    -   Host:\\\n        enwork.de\n\n    -   Gruppe:\\\n        Performance Cookies\n\n    -   Speicherdauer:\\\n        24 Stunden\n\n    -   Erläuterung:\\\n        Dieser Cookie ist mit Google Universal Analytics verknüpft. Es\n        sind keine genauen Informationen seitens Google bekannt, was\n        dieser Cookie genau tut. Es erscheint aber, dass er für jede\n        Seite einen eindeutigen Wert generiert und speichert.\n\n-   \\_gat\\_UA-XXXXXXXXX-X\n\n    -   Host:\\\n        enwork.de\n\n    -   Gruppe:\\\n        Performance Cookies\n\n    -   Speicherdauer:\\\n        60 Sekunden\n\n    -   Erläuterung:\\\n        Dieser Cookie ist mit Google Universal Analytics verknüpft. Er\n        enthält ein Musterelement, wobei das Musterelement den\n        eindeutigen Identifier des Google Universal Analytics Accounts\n        enthält, welcher mit der Seite verknüpft ist. Der Cookie wird\n        genutzt, um den Analysetraffic, welcher durch Google\n        aufgezeichnet wird, zu limitieren.\n\n-   id\n\n    -   Host:\\\n        doubleclick.net\n\n    -   Gruppe:\\\n        Targeting Cookies\n\n    -   Speicherdauer:\\\n        6 Monate\n\n    -   Erläuterung:\\\n        Diese Domain gehört zu Google. Doubleclick ist die\n        Echtzeit-Auktionsbörse für Werbung von Google.\n\n-   APISID\n\n    -   Host:\\\n        google.com\n\n    -   Gruppe:\\\n        Targeting Cookies\n\n    -   Speicherdauer:\\\n        6 Monate\n\n    -   Erläuterung:\\\n        Diese Domain gehört zu Google. Google bietet eine große\n        Bandbreite an Dienstleitungen an, der Hauptumsatz wird jedoch\n        durch Werbung generiert. Google trackt Nutzer sowohl durch seine\n        eigenen Dienstleitungen als auch durch die verschiedenen\n        Technologien, welche in Millionen von Websites implementiert\n        sind. Google nutzt diese Daten, um ein Profiling der Interessen\n        der einzelnen Nutzer durchzuführen. Basierend auf diesen\n        Interessensprofilen verkauft Google Organisationen Werbeplätze\n        und passt Werbeanzeigen an den Content an, welcher auf der\n        aufgerufenen Website ausgespielt wird.\n\n-   SSID\n\n    -   Host:\\\n        google.com\n\n    -   Gruppe:\\\n        Targeting Cookies\n\n    -   Speicherdauer:\\\n        6 Monate\n\n    -   Erläuterung:\\\n        Diese Domain gehört zu Google. Google bietet eine große\n        Bandbreite an Dienstleitungen an, der Hauptumsatz wird jedoch\n        durch Werbung generiert. Google trackt Nutzer sowohl durch seine\n        eigenen Dienstleitungen als auch durch die verschiedenen\n        Technologien, welche in Millionen von Websites implementiert\n        sind. Google nutzt diese Daten, um ein Profiling der Interessen\n        der einzelnen Nutzer durchzuführen. Basierend auf diesen\n        Interessensprofilen verkauft Google Organisationen Werbeplätze\n        und passt Werbeanzeigen an den Content an, welcher auf der\n        aufgerufenen Website ausgespielt wird.\n\n-   PREF\n\n    -   Host:\\\n        google.com\n\n    -   Gruppe:\\\n        Targeting Cookies\n\n    -   Speicherdauer:\\\n        6 Monate\n\n    -   Erläuterung:\\\n        Diese Domain gehört zu Google. Google bietet eine große\n        Bandbreite an Dienstleitungen an, der Hauptumsatz wird jedoch\n        durch Werbung generiert. Google trackt Nutzer sowohl durch seine\n        eigenen Dienstleitungen als auch durch die verschiedenen\n        Technologien, welche in Millionen von Websites implementiert\n        sind. Google nutzt diese Daten, um ein Profiling der Interessen\n        der einzelnen Nutzer durchzuführen. Basierend auf diesen\n        Interessensprofilen verkauft Google Organisationen Werbeplätze\n        und passt Werbeanzeigen an den Content an, welcher auf der\n        aufgerufenen Website ausgespielt wird.\n\n-   SID\n\n    -   Host:\\\n        google.com\n\n    -   Gruppe:\\\n        Targeting Cookies\n\n    -   Speicherdauer:\\\n        6 Monate\n\n    -   Erläuterung:\\\n        Diese Domain gehört zu Google. Google bietet eine große\n        Bandbreite an Dienstleitungen an, der Hauptumsatz wird jedoch\n        durch Werbung generiert. Google trackt Nutzer sowohl durch seine\n        eigenen Dienstleitungen als auch durch die verschiedenen\n        Technologien, welche in Millionen von Websites implementiert\n        sind. Google nutzt diese Daten, um ein Profiling der Interessen\n        der einzelnen Nutzer durchzuführen. Basierend auf diesen\n        Interessensprofilen verkauft Google Organisationen Werbeplätze\n        und passt Werbeanzeigen an den Content an, welcher auf der\n        aufgerufenen Website ausgespielt wird.\n\n-   SAPISID\n\n    -   Host:\\\n        google.com\n\n    -   Gruppe:\\\n        Targeting Cookies\n\n    -   Speicherdauer:\\\n        6 Monate\n\n    -   Erläuterung:\\\n        Diese Domain gehört zu Google. Google bietet eine große\n        Bandbreite an Dienstleitungen an, der Hauptumsatz wird jedoch\n        durch Werbung generiert. Google trackt Nutzer sowohl durch seine\n        eigenen Dienstleitungen als auch durch die verschiedenen\n        Technologien, welche in Millionen von Websites implementiert\n        sind. Google nutzt diese Daten, um ein Profiling der Interessen\n        der einzelnen Nutzer durchzuführen. Basierend auf diesen\n        Interessensprofilen verkauft Google Organisationen Werbeplätze\n        und passt Werbeanzeigen an den Content an, welcher auf der\n        aufgerufenen Website ausgespielt wird.\n\n-   HSID\n\n    -   Host:\\\n        google.com\n\n    -   Gruppe:\\\n        Targeting Cookies\n\n    -   Speicherdauer:\\\n        6 Monate\n\n    -   Erläuterung:\\\n        Diese Domain gehört zu Google. Google bietet eine große\n        Bandbreite an Dienstleitungen an, der Hauptumsatz wird jedoch\n        durch Werbung generiert. Google trackt Nutzer sowohl durch seine\n        eigenen Dienstleitungen als auch durch die verschiedenen\n        Technologien, welche in Millionen von Websites implementiert\n        sind. Google nutzt diese Daten, um ein Profiling der Interessen\n        der einzelnen Nutzer durchzuführen. Basierend auf diesen\n        Interessensprofilen verkauft Google Organisationen Werbeplätze\n        und passt Werbeanzeigen an den Content an, welcher auf der\n        aufgerufenen Website ausgespielt wird.\n\nSoweit diese Cookies (auch) personenbezogene Daten betreffen können,\ninformieren wir dich darüber in den folgenden Abschnitten.\\\n\\\nDu kannst über deine Browsereinstellungen auch einzelne Cookies oder den\ngesamten Cookie-Bestand löschen. Darüber hinaus erhältst du\nInformationen und Anleitungen, wie diese Cookies gelöscht oder deren\nSpeicherung vorab blockiert werden können. Je nach Anbieter deines\nBrowsers findest du die notwendigen Informationen unter den\nnachfolgenden Links:\\\n\\\n**Chrome**\\\n<https://support.google.com/accounts/answer/61416?hl=de>\\\n\\\n**Firefox**\\\n<https://support.mozilla.org/de/kb/cookies-loeschen-daten-von-websites-entfernen>\\\n\\\n**Safari**\\\n<https://support.apple.com/kb/PH17191?locale=de_DE&viewlocale=de_DE>\\\n\\\n**Opera**\\\n<http://www.opera.com/de/help>\\\n\\\n**Internet Explorer**\\\n<https://support.microsoft.com/de-de/help/17442/windows-internet-explorer-delete-manage-cookies>\n\nRegistrierung auf unserer Website\n---------------------------------\n\n### Art und Zweck der Verarbeitung\n\nBei der Registrierung für die Nutzung der enwork-Plattform werden einige\npersonenbezogene Daten erhoben, wie Name, Anschrift, Kontakt- und\nKommunikationsdaten (z.B. Telefonnummer und E-Mail-Adresse). Bist du bei\nuns registriert, kannst du auf Inhalte und Leistungen zugreifen, die wir\nnur registrierten Nutzern anbieten. Angemeldete Nutzer haben zudem die\nMöglichkeit, bei Bedarf die bei Registrierung angegebenen Daten\njederzeit zu ändern oder zu löschen. Selbstverständlich erteilen wir dir\ndarüber hinaus jederzeit Auskunft über die von dir bei uns gespeicherten\npersonenbezogenen Daten.\n\n### Rechtsgrundlage\n\nDie Verarbeitung der bei der Registrierung eingegebenen Daten erfolgt\nauf Grundlage deiner Einwilligung als Nutzer (Artikel 6 Absatz 1 littera\na DSGVO).\\\n\\\nDient die Registrierung der Erfüllung eines Vertrages, dessen\nVertragspartei du als betroffene Person bist oder der Durchführung\nvorvertraglicher Maßnahmen, so ist zusätzliche Rechtsgrundlage für die\nVerarbeitung der Daten Artikel 6 Absatz 1 littera b DSGVO.\n\n### Empfänger\n\nEmpfänger der Daten sind gegebenenfalls technische Dienstleister, die\nfür den Betrieb und die Wartung unserer Website als Auftragsverarbeiter\ntätig werden.\n\n### Speicherdauer\n\nDaten werden in diesem Zusammenhang nur verarbeitet, solange die\nentsprechende Einwilligung vorliegt. Danach werden sie gelöscht, soweit\nkeine gesetzlichen Aufbewahrungspflichten entgegenstehen. Zur\nKontaktaufnahme in diesem Zusammenhang nutze bitte die am Ende dieser\nDatenschutzerklärung angegebenen Kontaktdaten.\n\n### Bereitstellung vorgeschrieben oder erforderlich\n\nDie Bereitstellung deiner personenbezogenen Daten erfolgt freiwillig,\nallein auf Basis deiner Einwilligung. Ohne die Bereitstellung deiner\npersonenbezogenen Daten können wir dir keinen Zugang auf die\nenwork-Plattform und die dort angebotenen Inhalte und Leistungen\ngewähren.\n\nErbringung kostenpflichtiger Leistungen\n---------------------------------------\n\n### Art und Zweck der Verarbeitung\n\nZur Erbringung kostenpflichtiger Leistungen werden von uns zusätzlich\nDaten erfragt, wie z.B. Zahlungsangaben, um deine Bestellung ausführen\nzu können.\n\n### Rechtsgrundlage\n\nDie Verarbeitung der Daten, die für den Abschluss des Vertrages\nerforderlich ist, basiert auf Artikel 6 Absatz 1 littera b DSGVO.\n\n### Empfänger\n\nEmpfänger der Daten sind gegebenenfalls Auftragsverarbeiter.\n\n### Speicherdauer\n\nWir speichern diese Daten in unseren Systemen bis die gesetzlichen\nAufbewahrungsfristen abgelaufen sind. Diese betragen grundsätzlich 6\noder 10 Jahre aus Gründen der ordnungsmäßigen Buchführung und\nsteuerrechtlichen Anforderungen.\n\n### Bereitstellung vorgeschrieben oder erforderlich\n\nDie Bereitstellung deiner personenbezogenen Daten erfolgt freiwillig.\nOhne die Bereitstellung deiner personenbezogenen Daten können wir dir\nkeinen Zugang auf unsere kostenpflichtig angebotenen Inhalte und\nLeistungen innerhalb der enwork-Plattform gewähren.\n\nNewsletter\n----------\n\n### Art und Zweck der Verarbeitung\n\nDeine Daten werden ausschließlich dazu verwendet, dir den abonnierten\nNewsletter per E-Mail zuzustellen. Die Angabe deines Namens erfolgt, um\ndich im Newsletter persönlich ansprechen zu können und gegebenenfalls zu\nidentifizieren, falls du von deinen Rechten als Betroffener Gebrauch\nmachen möchtest.\\\n\\\nFür den Empfang des Newsletters ist die Angabe deiner E-Mail-Adresse\nausreichend. Bei der Anmeldung zum Bezug unseres Newsletters werden die\nvon dir angegebenen Daten ausschließlich für diesen Zweck verwendet.\nAbonnenten können auch über Umstände per E-Mail informiert werden, die\nfür den Dienst oder die Registrierung relevant sind (beispielsweise\nÄnderungen des Newsletterangebotes oder technische Gegebenheiten).\\\n\\\nFür eine wirksame Registrierung benötigen wir eine valide\nE-Mail-Adresse. Um zu überprüfen, dass eine Anmeldung tatsächlich durch\nden Inhaber einer E-Mail-Adresse erfolgt, setzen wir das\n\"Double-Opt-In\"-Verfahren ein. Hierzu protokollieren wir die Bestellung\ndes Newsletters, den Versand einer Bestätigungsmail und dein Eingang der\nhiermit angeforderten Antwort. Weitere Daten werden nicht erhoben. Die\nDaten werden ausschließlich für den Newsletterversand verwendet und\nnicht an Dritte weitergegeben.\n\n### Rechtsgrundlage\n\nAuf Grundlage deiner ausdrücklich erteilten Einwilligung (Artikel 6\nAbsatz 1 littera a DSGVO) übersenden wir dir regelmäßig unseren\nNewsletter bzw. vergleichbare Informationen per E-Mail an deine\nangegebene E-Mail-Adresse.\\\n\\\nDie Einwilligung zur Speicherung deiner persönlichen Daten und ihrer\nNutzung für den Newsletterversand kannst du jederzeit mit Wirkung für\ndie Zukunft widerrufen. In jedem Newsletter findet sich dazu ein\nentsprechender Link. Außerdem kannst du uns deinen Widerruf über die am\nEnde dieser Datenschutzerklärung angegebene Kontaktmöglichkeit\nmitteilen.\n\n### Empfänger\n\nEmpfänger der Daten sind gegebenenfalls Auftragsverarbeiter.\n\n### Speicherdauer\n\nDie Daten werden in diesem Zusammenhang nur verarbeitet, solange die\nentsprechende Einwilligung vorliegt. Danach werden sie gelöscht.\n\n### Bereitstellung vorgeschrieben oder erforderlich\n\nDie Bereitstellung deiner personenbezogenen Daten erfolgt freiwillig,\nallein auf Basis deiner Einwilligung. Ohne bestehende Einwilligung\nkönnen wir dir unseren Newsletter leider nicht zusenden.\n\nKontaktformular\n---------------\n\n### Art und Zweck der Verarbeitung\n\nDie von dir eingegebenen Daten werden zum Zweck der individuellen\nKommunikation mit dir gespeichert. Hierfür ist die Angabe einer validen\nE-Mail-Adresse sowie deines Namens erforderlich. Diese Daten dienen der\nZuordnung der Anfrage und der anschließenden Beantwortung derselben. Die\nAngabe weiterer Daten ist optional.\n\n### Rechtsgrundlage\n\nDie Verarbeitung der in das Kontaktformular eingegebenen Daten erfolgt\nauf der Grundlage eines berechtigten Interesses (Artikel 6 Absatz 1\nlittera f DSGVO).\\\nDurch die Bereitstellung möchten wir dir eine unkomplizierte\nKontaktaufnahme ermöglichen. Deine gemachten Angaben werden zum Zwecke\nder Bearbeitung der Anfrage sowie für mögliche Anschlussfragen\ngespeichert.\\\nSofern du mit uns Kontakt aufnimmst um ein Angebot zu erfragen, erfolgt\ndie Verarbeitung der in das Kontaktformular eingegebenen Daten zur\nDurchführung vorvertraglicher Maßnahmen (Artikel 6 Absatz 1 littera b\nDSGVO).\n\n### Empfänger\n\nEmpfänger der Daten sind gegebenenfalls Auftragsverarbeiter.\n\n### Speicherdauer\n\nDaten werden spätestens 6 Monate nach Bearbeitung der Anfrage gelöscht.\\\nSofern es zu einem Vertragsverhältnis kommt, unterliegen wir den\ngesetzlichen Aufbewahrungsfristen nach HGB und löschen Ihre Daten nach\nAblauf dieser Fristen.\n\n### Bereitstellung vorgeschrieben oder erforderlich\n\nDie Bereitstellung deiner personenbezogenen Daten erfolgt freiwillig.\nWir können deine Anfrage jedoch nur bearbeiten, sofern du uns deinen\nNamen, deine E-Mail-Adresse und den Grund der Anfrage mitteilst.\n\nGoogle Analytics\n----------------\n\n### Art und Zweck der Verarbeitung\n\nDiese Website benutzt Google Analytics, einen Webanalysedienst der\nGoogle LLC, 1600 Amphitheatre Parkway, Mountain View, CA 94043 USA\n(nachfolgend \"Google\").\\\nGoogle Analytics verwendet sogenannte \"Cookies\", also Textdateien, die\nauf deinem Computer gespeichert werden und die eine Analyse der\nBenutzung der Website durch dich ermöglichen. Die durch das Cookie\nerzeugten Informationen über deine Benutzung dieser Website werden in\nder Regel an einen Server von Google in den USA übertragen und dort\ngespeichert. Aufgrund der Aktivierung der IP-Anonymisierung auf unseren\nWebsites, wird deine IP-Adresse von Google jedoch innerhalb von\nMitgliedsstaaten der Europäischen Union oder in anderen Vertragsstaaten\ndes Abkommens über den Europäischen Wirtschaftsraum zuvor gekürzt. Nur\nin Ausnahmefällen wird die volle IP-Adresse an einen Server von Google\nin den USA übertragen und dort gekürzt.\\\nIm Auftrag von uns wird Google diese Informationen benutzen, um deine\nNutzung der Website auszuwerten, um Reports über die Websiteaktivitäten\nzusammenzustellen und um weitere mit der Websitenutzung und der\nInternetnutzung verbundene Dienstleistungen gegenüber Websitebetreibern\nzu erbringen. Die im Rahmen von Google Analytics von deinem Browser\nübermittelte IP-Adresse wird nicht mit anderen Daten von Google\nzusammengeführt.\\\n\\\nDie Zwecke der Datenverarbeitung liegen in der Auswertung der Nutzung\nder Website und in der Zusammenstellung von Reports über Aktivitäten auf\nder Website. Auf Grundlage der Nutzung der Website und des Internets\nsollen dann weitere verbundene Dienstleistungen erbracht werden.\n\n### Rechtsgrundlage\n\nDie Verarbeitung der Daten erfolgt auf Grundlage einer Einwilligung des\nNutzers (Artikel 6 Absatz 1 littera a DSGVO).\n\n### Empfänger\n\nEmpfänger der Daten ist Google als Auftragsverarbeiter. Hierfür haben\nwir mit Google den entsprechenden Auftragsverarbeitungsvertrag\nabgeschlossen.\n\n### Speicherdauer\n\nDie Löschung der Daten erfolgt, sobald diese für unsere\nAufzeichnungszwecke nicht mehr erforderlich sind.\n\n### Drittlandtransfer\n\nGoogle verarbeitet deine Daten in den USA und hat sich dem EU-US Privacy\nShield unterworfen (<https://www.privacyshield.gov/EU-US-Framework>)\n\n### Bereitstellung vorgeschrieben oder erforderlich\n\nDie Bereitstellung deiner personenbezogenen Daten erfolgt freiwillig,\nallein auf Basis deiner Einwilligung. Sofern du den Zugriff\nunterbindest, kann es hierdurch zu Funktionseinschränkungen auf der\nWebsite kommen.\n\n### Widerruf der Einwilligung\n\nDu kannst die Speicherung der Cookies durch eine entsprechende\nEinstellung deines Browsers verhindern; wir weisen jedoch darauf hin,\ndass du in diesem Fall gegebenenfalls nicht sämtliche Funktionen auf\ndieser Website vollumfänglich nutzen kannst.\\\nDu kannst darüber hinaus die Erfassung der durch das Cookies erzeugten\nund auf deine Nutzung der Website bezogene Daten (inklusive deiner\nIP-Adresse), die Übertragung dieser Daten an Google sowie die\nVerarbeitung dieser Daten durch Google verhindern, indem du das unter\ndem folgenden Link verfügbare Browser-Plugin herunterlädst und\ninstallierst: <http://tools.google.com/dlpage/gaoptout?hl=de>\\\n\\\nDabei wird ein Opt-out-Cookie auf deinem Gerät installiert. Damit wird\ndie Erfassung durch Google Analytics für unsere Website und für diesen\nBrowser zukünftig verhindert, so lange das Cookie in deinem Browser\ninstalliert bleibt.\n\n### Profiling\n\nMit Hilfe des Tracking-Tools Google Analytics kann das Verhalten der\nBesucher der Website bewertet und die Interessen analysiert werden.\nHierzu erstellen wir ein pseudonymes Nutzerprofil.\n\nGoogle Signals\n--------------\n\n### Art und Zweck der Verarbeitung\n\nDiese Website benutzt Google Signals, eine Erweiterung des\nWebanalysedienstes Google Analytics der Google LLC, 1600 Amphitheatre\nParkway, Mountain View, CA 94043 USA (nachfolgend \"Google\").\\\nDie Funktion Google Signals innerhalb von Google Analytics dient dazu,\neine holistische Sicht auf dich als Nutzer und die Interaktion von dir\nmit unserer Website zu erhalten. Dazu verwendet Google deinen\nGoogle-Account, um ein Cross-Device-Tracking durchzuführen.\\\nEin Tracking von dir als Nutzer durch Google Signals ist allerdings nur\nmöglich, sofern du in deinem Google-Account eingeloggt bist und du die\nFunktion \"Personalisierte Werbung\" aktiviert hast.\\\nIm Auftrag von uns wird Google diese Informationen benutzen, um deine\nNutzung der Website auszuwerten, um Reports über die Websiteaktivitäten\nzusammenzustellen und um weitere mit der Websitenutzung und der\nInternetnutzung verbundene Dienstleistungen gegenüber Websitebetreibern\nzu erbringen.\\\nWir erhalten durch den Einsatz von Google Signals keine Informationen\nvon Google, mittels derer du als betroffene Person identifiziert werden\nkannst. Weitere Informationen zu Google Signals erhältst du hier:\n<https://support.google.com/analytics/answer/7532985>\\\n\\\nDie Zwecke der Datenverarbeitung liegen in der Auswertung der Nutzung\nder Website und in der Zusammenstellung von Reports über Aktivitäten auf\nder Website. Auf Grundlage der Nutzung der Website und des Internets\nsollen dann weitere verbundene Dienstleistungen erbracht werden.\n\n### Rechtsgrundlage\n\nDie Verarbeitung der Daten erfolgt auf Grundlage einer Einwilligung des\nNutzers (Artikel 6 Absatz 1 littera a DSGVO).\n\n### Empfänger\n\nEmpfänger der Daten ist Google als Auftragsverarbeiter. Hierfür haben\nwir mit Google den entsprechenden Auftragsverarbeitungsvertrag\nabgeschlossen.\n\n### Speicherdauer\n\nDie Löschung der Daten erfolgt, sobald diese für unsere\nAufzeichnungszwecke nicht mehr erforderlich sind.\n\n### Drittlandtransfer\n\nGoogle verarbeitet deine Daten in den USA und hat sich dem EU-US Privacy\nShield unterworfen (<https://www.privacyshield.gov/EU-US-Framework>)\n\n### Bereitstellung vorgeschrieben oder erforderlich\n\nDie Bereitstellung deiner personenbezogenen Daten erfolgt freiwillig,\nallein auf Basis deiner Einwilligung. Sofern du den Zugriff\nunterbindest, kann es hierdurch zu Funktionseinschränkungen auf der\nWebsite kommen.\n\n### Widerruf der Einwilligung\n\nDu kannst die Erfassung der auf deine Nutzung der Website bezogenen\nDaten, die Übertragung dieser Daten an Google sowie die Verarbeitung\ndieser Daten durch Google verhindern, indem du die Funktion\n\"Personalisierte Werbung\" in deinen Google-Account-Einstellungen\ndeaktivierst. Du findest die Einstellungen unter folgendem Link:\n<https://adssettings.google.com/>\\\nWir weisen jedoch darauf hin, dass du im Falle einer Deaktivierung nicht\nsämtliche Funktionen auf dieser Website vollumfänglich nutzen kannst.\n\n### Profiling\n\nMit Hilfe von Google Signals kann das Verhalten der Besucher der Website\nbewertet und die Interessen analysiert werden. Hierzu erstellen wir ein\npseudonymes Nutzerprofil.\n\nGoogle Ads\n----------\n\n### Art und Zweck der Verarbeitung\n\nUnsere Website nutzt das Google Conversion-Tracking.\nBetreibergesellschaft der Dienste von Google Ads ist die Google LLC,\n1600 Amphitheatre Parkway, Mountain View, CA 94043, USA (nachfolgend\n\"Google\").\\\nBist du über eine von Google geschaltete Werbeanzeige auf unsere Website\ngelangt, wird von Google Ads ein Cookie auf deinem Rechner gesetzt. Das\nCookie für Conversion-Tracking wird gesetzt, wenn ein Nutzer auf eine\nvon Google geschaltete Werbeanzeige klickt.\\\nBesuchst du als Nutzer bestimmte Seiten unserer Website und das Cookie\nfür Conversion-Tracking ist noch nicht abgelaufen, können wir und Google\nerkennen, dass du als Nutzer auf die Werbeanzeige geklickt hast und du\nzu dieser Seite weitergeleitet wurdest.\\\nJeder Google Ads-Kunde (wir als enwork GmbH sind in diesem Fall ein\nGoogle Ads-Kunde) erhält ein anderes Cookie. Cookies können somit nicht\nüber die Websites von Google Ads-Kunden nachverfolgt werden. Die\nmithilfe des Conversion-Cookies eingeholten Informationen dienen dazu,\nConversion-Statistiken für uns zu erstellen, da wir uns für\nConversion-Tracking entschieden haben. Wir erfahren die Gesamtanzahl der\nNutzer, die auf unsere Werbeanzeige bei Google geklickt haben und zu\neiner mit einem Conversion-Tracking-Tag versehenen Seite weitergeleitet\nwurden. Wir erhalten jedoch keine Informationen, mit denen sich Nutzer\n(also du) persönlich identifizieren lassen.\n\n### Rechtsgrundlage\n\nRechtsgrundlage für die Einbindung von Google Ads und dem damit\nverbundenen Datentransfer zu Google ist deine Einwilligung (Artikel 6\nAbsatz 1 littera a DSGVO).\n\n### Empfänger\n\nBei jedem Besuch unserer Website werden personenbezogene Daten,\neinschließlich deiner IP-Adresse, an Google in die USA übertragen. Diese\npersonenbezogenen Daten werden durch Google gespeichert. Google gibt\ndiese über das technische Verfahren erhobenen personenbezogenen Daten\nunter Umständen an Dritte weiter.\\\n\\\nUnser Unternehmen erhält keine Informationen von Google, mittels derer\ndu als betroffene Person identifiziert werden kannst.\n\n### Speicherdauer\n\nDiese Cookies verlieren in der Regel nach 30 Tagen ihre Gültigkeit und\ndienen nicht der persönlichen Identifizierung.\n\n### Drittlandtransfer\n\nGoogle verarbeitet deine Daten in den USA und hat sich dem EU-US Privacy\nShield unterworfen (<https://www.privacyshield.gov/EU-US-Framework>)\n\n### Widerruf der Einwilligung\n\nMöchtest du nicht am Tracking teilnehmen, kannst du das hierfür\nerforderliche Setzen eines Cookies ablehnen - etwa per\nBrowser-Einstellung, die das automatische Setzen von Cookies generell\ndeaktiviert oder indem du deinen Browser so einstellst, dass Cookies von\nder Domain \"googleadservices.com\" blockiert werden.\\\nBitte beachte, dass du die Opt-out-Cookies nicht löschen darfst, solange\ndu keine Aufzeichnung von Messdaten wünschst. Hast du alle deine Cookies\nim Browser gelöscht, musst du das jeweilige Opt-out-Cookie erneut\nsetzen.\n\n### Bereitstellung vorgeschrieben oder erforderlich\n\nDie Bereitstellung deiner personenbezogenen Daten erfolgt freiwillig,\nallein auf Basis deiner Einwilligung. Sofern du den Zugriff\nunterbindest, kann es hierdurch zu Funktionseinschränkungen auf der\nWebsite kommen.\n\nGoogle Remarketing\n------------------\n\n### Art und Zweck der Verarbeitung\n\nUnsere Website verwendet die Google Remarketing-Funktion.\nBetreibergesellschaft der Dienste von Google Remarketing ist die Google\nLLC, 1600 Amphitheatre Parkway, Mountain View, CA 94043, USA\n(nachfolgend \"Google\").\\\nDie Funktion von Google Remarketing dient dazu, dir als Websitebesucher\ninnerhalb des Google-Werbenetzwerkes interessenbezogene Werbeanzeigen zu\npräsentieren. Als Websitebesucher wird in deinem Browser ein sogenanntes\n\"Cookie\" gespeichert, welches es ermöglicht, dich als Besucher\nwiederzuerkennen, wenn du Websites aufrufst, die dem Werbenetzwerk von\nGoogle angehören.\\\nAuf den Websites die dem Werbenetzwerk von Google angehören, können dir\nals Besucher Werbeanzeigen präsentiert werden, die sich auf Inhalte\nbeziehen, die du als Besucher zuvor auf Websites aufgerufen hast, die\ndie Remarketing-Funktion von Google verwenden.\n\n### Rechtsgrundlage\n\nRechtsgrundlage für die Einbindung von Google Remarketing und dem damit\nverbundenen Datentransfer zu Google ist deine Einwilligung (Artikel 6\nAbsatz 1 littera a DSGVO).\n\n### Empfänger\n\nBei jedem Besuch unserer Website werden personenbezogene Daten,\neinschließlich deiner IP-Adresse, an Google in die USA übertragen. Diese\npersonenbezogenen Daten werden durch Google gespeichert. Google gibt\ndiese über das technische Verfahren erhobenen personenbezogenen Daten\nunter Umständen an Dritte weiter.\\\n\\\nUnser Unternehmen erhält keine Informationen von Google, mittels derer\ndu als betroffene Person identifiziert werden kannst.\n\n### Widerruf der Einwilligung\n\nNach eigenen Angaben erhebt Google bei diesem Vorgang keine\npersonenbezogenen Daten. Solltest du die Remarketing-Funktion von Google\ndennoch nicht wünschen, kannst du diese grundsätzlich deaktivieren,\nindem du die entsprechenden Einstellungen unter nachfolgendem Link\nvornimmst: <https://support.google.com/adspolicy/answer/143465>\\\nAlternativ kannst du den Einsatz von Cookies für interessenbezogene\nWerbung über die Werbenetzwerkinitiative deaktivieren, indem du den\nAnweisungen unter nachstehendem Link folgst:\n<http://www.networkadvertising.org/managing/opt_out.asp>\n\n### Bereitstellung vorgeschrieben oder erforderlich\n\nDie Bereitstellung deiner personenbezogenen Daten erfolgt freiwillig,\nallein auf Basis deiner Einwilligung. Sofern du den Zugriff\nunterbindest, kann es hierdurch zu Funktionseinschränkungen auf der\nWebsite kommen.\n\nFacebook-Pixel\n--------------\n\n### Art und Zweck der Verarbeitung\n\nUnsere Website verwendet den Facebook-Pixel. Mit Hilfe des\nFacebook-Pixels ist es Facebook möglich, dich als Websitebesucher\nunseres Onlineangebotes als Zielgruppe für die Darstellung von Anzeigen\n(sogenannten \"Facebook-Ads\") zu bestimmen. Dementsprechend setzen wir\ndas Facebook-Pixel ein, um die durch uns geschalteten Facebook-Ads nur\nsolchen Nutzern bei Facebook und innerhalb der Dienste der mit Facebook\nkooperierenden Partner (das sogenannte \"Audience Network\"\n<https://www.facebook.com/audiencenetwork/>) anzuzeigen, die auch ein\nInteresse an unserem Onlineangebot gezeigt haben oder die bestimmte\nMerkmale (z.B. Interesse an bestimmten Themen oder Produkten, die anhand\nder besuchten Websites ersichtlich werden) aufweisen, die wir an\nFacebook übermitteln (sogenannte \"Custom Audiences\"). Mit Hilfe des\nFacebook-Pixels möchten wir auch sicherstellen, dass unsere Facebook-Ads\ndem potenziellen Interesse der Nutzer entsprechen und nicht belästigend\nwirken. Ferner können wir mit Hilfe des Facebook-Pixels die Wirksamkeit\nvon Facebook-Ads für statistische und Marktforschungszwecke\nnachvollziehen, indem wir sehen, ob Nutzer nach dem Klick auf eine\nFacebook-Ad auf unsere Website weitergeleitet wurden (sogenannte\n\"Konversionsmessung\").\\\n\\\nMit Hilfe des Facebook-Pixel verarbeiten wir deine Nutzungsdaten (z.B.\nbesuchte Webseiten, Interesse an Inhalten, Zugriffszeiten), Meta- /\nKommunikationsdaten (z.B. Geräte-Informationen, IP-Adressen) und\nStandortdaten (Daten, die den Standort des Endgerätes von dir angeben).\\\nAls Sicherheitsmaßnahme verwenden wir das IP-Masking-Verfahren (eine\nPseudonymisierung deiner IP-Adresse).\\\n\\\nDie Zwecke der Datenverarbeitung liegen im Tracking (z.B. interessens- /\nverhaltensbezogenes Profiling, Nutzung von Cookies), Remarketing,\nBesuchsaktionsauswertung, Interessenbasierten und verhaltensbezogenen\nMarketing, Profiling (Erstellen von Nutzerprofilen), Konversionsmessung\n(Messung der Effektivität von Marketingmaßnahmen), Zielgruppenbildung\n(Bestimmung von für Marketingzwecke relevanten Zielgruppen oder sonstige\nAusgabe von Inhalten) sowie dem Cross-Device-Tracking\n(geräteübergreifende Verarbeitung von Nutzerdaten für Marketingzwecke).\n\n### Rechtsgrundlage\n\nRechtsgrundlage für die Einbindung des Facebook-Pixels und dem damit\nverbundenen Datentransfer zu Facebook ist deine Einwilligung (Artikel 6\nAbsatz 1 littera a DSGVO).\n\n### Empfänger\n\nBei jedem Besuch unserer Website werden personenbezogene Daten,\neinschließlich deiner IP-Adresse, an Facebook in die USA übertragen.\nDiese personenbezogenen Daten werden durch Facebook gespeichert.\nFacebook gibt diese über das technische Verfahren erhobenen\npersonenbezogenen Daten unter Umständen an Dritte weiter.\\\n\\\nUnser Unternehmen erhält keine Informationen von Facebook, mittels derer\ndu als betroffene Person identifiziert werden kannst.\n\n### Widerruf der Einwilligung\n\nEs besteht zum einen die Möglichkeit, dass du Cookies in den\nEinstellungen deines Browsers abschaltest. Hierdurch können jedoch\nFunktionen unseres Onlineangebotes eingeschränkt werden. Wir empfehlen\ndaher zusätzlich die folgenden Opt-Out-Möglichkeiten, die\nzusammenfassend auf die jeweiligen Gebiete ausgerichtet angeboten\nwerden:\\\n\\\n**Europa**\\\n<https://www.youronlinechoices.eu>\\\n\\\n**Kanada**\\\n<https://www.youradchoices.ca/choices>\\\n\\\n**USA**\\\n<https://www.aboutads.info/choices>\\\n\\\n**Gebietsübergreifend**\\\n<http://optout.aboutads.info>\n\n### Bereitstellung vorgeschrieben oder erforderlich\n\nDie Bereitstellung deiner personenbezogenen Daten erfolgt freiwillig,\nallein auf Basis deiner Einwilligung. Sofern du den Zugriff\nunterbindest, kann es hierdurch zu Funktionseinschränkungen auf der\nWebsite kommen.\n\nGoogle Webfonts\n---------------\n\n### Art und Zweck der Verarbeitung\n\nUm unsere Inhalte browserübergreifend korrekt und grafisch ansprechend\ndarzustellen, verwenden wir auf dieser Website Google Webfonts zur\nDarstellung von Schriften. Betreibergesellschaft der Dienste von Google\nWebfonts ist die Google LLC, 1600 Amphitheatre Parkway, Mountain View,\nCA 94043, USA (nachfolgend \"Google\").\n\n### Rechtsgrundlage\n\nRechtsgrundlage für die Einbindung von Google Webfonts und dem damit\nverbundenen Datentransfer zu Google ist deine Einwilligung (Artikel 6\nAbsatz 1 littera a DSGVO).\n\n### Empfänger\n\nDer Aufruf von Scriptbibliotheken oder Schriftbibliotheken löst\nautomatisch eine Verbindung zum Betreiber der Bibliothek aus. Dabei ist\nes theoretisch möglich - aktuell allerdings auch unklar ob und\ngegebenenfalls zu welchen Zwecken - dass der Betreiber (in diesem Fall\nGoogle) Daten erhebt.\n\n### Speicherdauer\n\nWir erheben keine personenbezogenen Daten durch die Einbindung von\nGoogle Webfonts.\n\n### Drittlandtransfer\n\nGoogle verarbeitet deine Daten in den USA und hat sich dem EU-US Privacy\nShield unterworfen (<https://www.privacyshield.gov/EU-US-Framework>)\n\n### Bereitstellung vorgeschrieben oder erforderlich\n\nDie Bereitstellung der personenbezogenen Daten ist weder gesetzlich noch\nvertraglich vorgeschrieben. Allerdings kann die korrekte Darstellung der\nInhalte von Standardschriften nicht ermöglicht werden.\n\n### Widerruf der Einwilligung\n\nZur Darstellung der Inhalte wird regelmäßig die Programmiersprache\nJavaScript verwendet. Du kannst der Datenverarbeitung daher\nwidersprechen, indem du die Ausführung von JavaScript in deinem Browser\ndeaktivierst oder einen JavaScript-Blocker installierst. Bitte beachte,\ndass es hierdurch zu Funktionseinschränkungen auf der Website kommen\nkann.\n\nSSL-Verschlüsselung\n-------------------\n\nUm die Sicherheit deiner Daten bei der Übertragung zu schützen,\nverwenden wir dem aktuellen Stand der Technik entsprechende\nVerschlüsselungsverfahren (z.B. SSL) über HTTPS.\n\nEingesetzte Auftragsverarbeiter\n-------------------------------\n\nFolgende Organisationen, Unternehmen bzw. Personen wurden von uns als\nBetreiber dieser Website mit der Verarbeitung von Daten beauftragt:\\\n\\\n**Amazon Web Services Inc.**\\\n410 Terry Avenue North, Seattle, WA 98109-5210, USA\\\n<https://aws.amazon.com/privacy/>\\\nBereitstellung der Website\\\n\\\n**Facebook Ireland Ltd.**\\\n4 Grand Canal Square, Grand Canal Harbour, Dublin 2, Irland\\\n<https://www.facebook.com/about/privacy>\\\nFacebook-Pixel zu Marketingzwecken\\\n\\\n**GoCardless Ltd.**\\\nSutton Yard, 65 Goswell Road, London, EC1V 7EN, England\\\n<https://gocardless.com/legal/privacy/>\\\nZahlungsabwicklung für SEPA-Lastschriftverfahren\\\n\\\n**Google LLC**\\\n1600 Amphitheatre Parkway, Mountain View, CA 94043, USA\\\n<https://privacy.google.com/businesses/processorterms/>\\\nGoogle Analytics zur Analyse des Website-Traffics\\\n<https://cloud.google.com/terms/data-processing-terms>\\\nGoogle Cloud Platform zur Bereitstellung der Website\\\n\\\n**Stripe Inc.**\\\n510 Townsend Street, San Francisco, CA 94103, USA\\\n<https://stripe.com/de-DE/privacy>\\\nZahlungsabwicklung für Kreditkartenzahlungen\\\n\\\n**Zoho Corporation B.V.**\\\nHoogoorddreef 15, 1101BA, Amsterdam, Niederlande\\\n<https://www.zoho.com/privacy.html>\\\nBereitstellung SaaS zur Abwicklung administrativer Prozesse\\\n\nÄnderung unserer Datenschutzbestimmungen\n----------------------------------------\n\nWir behalten uns vor, diese Datenschutzerklärung anzupassen, damit sie\nstets den aktuellen rechtlichen Anforderungen entspricht oder um\nÄnderungen unserer Leistungen in der Datenschutzerklärung umzusetzen,\nz.B. bei der Einführung neuer Services. Für deinen erneuten Besuch gilt\ndann die neue Datenschutzerklärung.\n\nFragen an den Datenschutzbeauftragten\n-------------------------------------\n\nWenn du Fragen zum Datenschutz hast, wende dich direkt an unseren\nexternen Datenschutzbeauftragten:\\\n\\\nDSB Karsten Rößner\\\nKarl-Bröger-Straße 10\\\n36304 Alsfeld\\\nTelefon: +49 (0) 6631 / 80 19 68\\\nFax: +49 (0) 6631 / 80 19 69\\\nE-Mail: privacy\\@enwork.de\\\n\\\n\\\nStand: 01. Februar 2020\n"
    }
  ]
}
