{
    "unfurl": {
      "title": "enwork - Mit innovativem Matching-System zum passenden Mitarbeiter",
      "description": "Wir sind enwork und wir sorgen dafür, dass neue Mitarbeiter einzustellen leicht von der Hand geht. Wir nennen das Recruiting für die Generation Netflix.",
      "header": "https://static.enwork.de/photos/personas/companies/191-100-medium-abteilungsleitung-birgit.jpg",
      "headerLarge": "https://static.enwork.de/photos/personas/companies/191-100-medium-abteilungsleitung-birgit.jpg",
      "url": "https://www.enwork.de/product-company-matching",
      "labels": [
        {
          "label": "Unser #",
          "value": "teamenwork"
        }
      ],
      "type": "website",
      "canonical": "https://www.enwork.de/product-company",
      "noIndex": true
    },
    "sections": [
      {
        "type": "persona-slider",
        "tinted": true,
        "persona": [
          {
            "id": "mesut",
            "1/1": {
              "midSrc": "https://static.enwork.de/photos/personas/companies/1-1-medium-abteilungsleitung-mesut.jpg",
              "src": "https://static.enwork.de/photos/personas/companies/1-1-high-abteilungsleitung-mesut.jpg",
              "alt": "Mann mittleren Alters mit leichter Glatze und Dreitagebart lächelt und trifft die Aussage dass er passende Mitarbeiter gefunden hat"
            },
            "191/100": {
              "midSrc": "https://static.enwork.de/photos/personas/companies/191-100-medium-abteilungsleitung-mesut.jpg",
              "src": "https://static.enwork.de/photos/personas/companies/191-100-high-abteilungsleitung-mesut.jpg",
              "alt": "Mann mittleren Alters mit leichter Glatze und Dreitagebart lächelt und trifft die Aussage dass er passende Mitarbeiter gefunden hat"
            }
          },
          {
            "id": "birgit",
            "1/1": {
              "midSrc": "https://static.enwork.de/photos/personas/companies/1-1-medium-abteilungsleitung-birgit.jpg",
              "src": "https://static.enwork.de/photos/personas/companies/1-1-high-abteilungsleitung-birgit.jpg",
              "alt": "Frau mittleren Alters mit schulterlangen braunen Haaren und grün-braunen Augen schaut in die Kamera und trifft die Aussage, dass sie passende Mitarbeiter gefunden hat"
            },
            "191/100": {
              "midSrc": "https://static.enwork.de/photos/personas/companies/191-100-medium-abteilungsleitung-birgit.jpg",
              "src": "https://static.enwork.de/photos/personas/companies/191-100-high-abteilungsleitung-birgit.jpg",
              "alt": "Frau mittleren Alters mit schulterlangen braunen Haaren und grün-braunen Augen schaut in die Kamera und trifft die Aussage, dass sie passende Mitarbeiter gefunden hat"
            }
          },
          {
            "id": "manfred",
            "1/1": {
              "midSrc": "https://static.enwork.de/photos/personas/companies/1-1-medium-geschaeftsfuehrer-manfred.jpg",
              "src": "https://static.enwork.de/photos/personas/companies/1-1-high-geschaeftsfuehrer-manfred.jpg",
              "alt": "Älterer Mann mit kurzen grauen Haaren und braunen Augen lächelt leicht und trifft die Aussage, dass Personalmangel kein Problem sei"
            },
            "191/100": {
              "midSrc": "https://static.enwork.de/photos/personas/companies/191-100-medium-geschaeftsfuehrer-manfred.jpg",
              "src": "https://static.enwork.de/photos/personas/companies/191-100-high-geschaeftsfuehrer-manfred.jpg",
              "alt": "Älterer Mann mit kurzen grauen Haaren und braunen Augen lächelt leicht und trifft die Aussage, dass Personalmangel kein Problem sei"
            }
          },
          {
            "id": "katja",
            "1/1": {
              "midSrc": "https://static.enwork.de/photos/personas/companies/1-1-medium-geschaeftsfuehrer-katja.jpg",
              "src": "https://static.enwork.de/photos/personas/companies/1-1-high-geschaeftsfuehrer-katja.jpg",
              "alt": "Frau mittleren Alters mit braunen Augen und braunen kurzen Haaren schaut aus dem Fenster und trifft die Aussage, dass Personalmangel kein Problem sei"
            },
            "191/100": {
              "midSrc": "https://static.enwork.de/photos/personas/companies/191-100-medium-geschaeftsfuehrer-katja.jpg",
              "src": "https://static.enwork.de/photos/personas/companies/191-100-high-geschaeftsfuehrer-katja.jpg",
              "alt": "Frau mittleren Alters mit braunen Augen und braunen kurzen Haaren schaut aus dem Fenster und trifft die Aussage, dass Personalmangel kein Problem sei"
            }
          },
          {
            "id": "andreas",
            "1/1": {
              "midSrc": "https://static.enwork.de/photos/personas/companies/1-1-medium-human-resources-andreas.jpg",
              "src": "https://static.enwork.de/photos/personas/companies/1-1-high-human-resources-andreas.jpg",
              "alt": "Mann mittleren Alters mit grauem Haar und grauem Dreitagebart sitzt am Schreibtisch, lächelt und trifft die Aussage, dass er Bewerbungen vorliegen hat"
            },
            "191/100": {
              "midSrc": "https://static.enwork.de/photos/personas/companies/191-100-medium-human-resources-andreas.jpg",
              "src": "https://static.enwork.de/photos/personas/companies/191-100-high-human-resources-andreas.jpg",
              "alt": "Mann mittleren Alters mit grauem Haar und grauem Dreitagebart sitzt am Schreibtisch, lächelt und trifft die Aussage, dass er Bewerbungen vorliegen hat"
            }
          },
          {
            "id": "nuri",
            "1/1": {
              "midSrc": "https://static.enwork.de/photos/personas/companies/1-1-medium-human-resources-nuri.jpg",
              "src": "https://static.enwork.de/photos/personas/companies/1-1-high-human-resources-nuri.jpg",
              "alt": "Junge asiatisch-europäische Frau mit schwarzen Haaren sitzt an einem Konferenztisch und trifft die Aussage, dass sie Bewerbungen vorliegen hat"
            },
            "191/100": {
              "midSrc": "https://static.enwork.de/photos/personas/companies/191-100-medium-human-resources-nuri.jpg",
              "src": "https://static.enwork.de/photos/personas/companies/191-100-high-human-resources-nuri.jpg",
              "alt": "Junge asiatisch-europäische Frau mit schwarzen Haaren sitzt an einem Konferenztisch und trifft die Aussage, dass sie Bewerbungen vorliegen hat"
            }
          },
          {
            "id": "jochen",
            "1/1": {
              "midSrc": "https://static.enwork.de/photos/personas/companies/1-1-medium-it-jochen.jpg",
              "src": "https://static.enwork.de/photos/personas/companies/1-1-high-it-jochen.jpg",
              "alt": "Mittelalter Mann mit Dreitagebart und leicht grauen Haaren lächelt und trifft die Aussage, dass Automatisierung kein Problem ist"
            },
            "191/100": {
              "midSrc": "https://static.enwork.de/photos/personas/companies/191-100-medium-it-jochen.jpg",
              "src": "https://static.enwork.de/photos/personas/companies/191-100-high-it-jochen.jpg",
              "alt": "Mittelalter Mann mit Dreitagebart und leicht grauen Haaren lächelt und trifft die Aussage, dass Automatisierung kein Problem ist"
            }
          },
          {
            "id": "pia",
            "1/1": {
              "midSrc": "https://static.enwork.de/photos/personas/companies/1-1-medium-it-pia.jpg",
              "src": "https://static.enwork.de/photos/personas/companies/1-1-high-it-pia.jpg",
              "alt": "Junge Frau mit schulterlangen leicht lockigen braunen Haaren lehnt an ihrem Schreibtisch, lächelt und trifft die Aussage, dass Automatisierung kein Problem ist"
            },
            "191/100": {
              "midSrc": "https://static.enwork.de/photos/personas/companies/191-100-medium-it-pia.jpg",
              "src": "https://static.enwork.de/photos/personas/companies/191-100-high-it-pia.jpg",
              "alt": "Junge Frau mit schulterlangen leicht lockigen braunen Haaren lehnt an ihrem Schreibtisch, lächelt und trifft die Aussage, dass Automatisierung kein Problem ist"
            }
          }
        ],
        "card": {
          "title": "Matche deinen passenden Mitarbeiter",
          "subtitle": "Dein zukünftiger Mitarbeiter wartet schon auf dich.",
          "buttons": [
            {
              "label": "Jetzt kostenfrei starten",
              "outlined": false,
              "theme": "primary",
              "href": "https://app.enwork.de/sign-up"
            },
            {
              "label": "Vertrieb kontaktieren",
              "outlined": true,
              "theme": "primary",
              "href": "/contact-sales"
            }
          ]
        }
      },
      {
        "type": "hero-text",
        "tinted": true,
        "text": "Mit innovativem Matching-System zum passenden Mitarbeiter"
      },
      {
        "type": "large-media",
        "tinted": true,
        "mediaPosition": "left",
        "title": "Innovatives Matching-System",
        "text": "Worauf wir bei enwork ganz besonders stolz sind, ist unser einzigartiges Matching-System. Unser System wertet deine Stellenanforderungen und Präferenzen mittels speziell von uns entwickelter Algorithmen aus und schlägt dir Kandidaten vor, die genau auf dein Unternehmen zugeschnitten sind. Das bedeutet für dich, dass du die perfekten Mitarbeiter einstellst und in deinem Unternehmen für mehr Zufriedenheit sorgst.",
        "image": {
          "src": "https://static.enwork.de/illustrations/enwork-illustration-matching.svg",
          "alt": "Illustration einer gehenden, dunkelhäutigen Frau, welche interessiert auf ein Kuchendiagramm mit Anmerkungen schaut"
        },
        "rounded": false,
        "buttons": [
          {
            "label": "Jetzt ausprobieren",
            "href": "https://app.enwork.de/sign-up"
          }
        ]
      },
      {
        "type": "large-media",
        "tinted": false,
        "mediaPosition": "right",
        "title": "Einfache Prozesse",
        "text": "Mit enwork wickelst du alle deine Prozesse ab. Von der Stellenausschreibung, über die Kandidatensuche bis hin zum ersten Arbeitstag deines neuen Mitarbeiters. Ganz einfach und intuitiv kannst du deine individuellen Prozesse bei enwork abbilden. So ermöglicht enwork dir und deinem gesamten Team effiziente Abläufe.",
        "image": {
          "src": "https://static.enwork.de/illustrations/enwork-illustration-ats-progress.svg",
          "alt": "Illustration einer stehenden, dunkelhäutigen Frau welche ein Pfad mit einzelnen Punkten als Milestones neben sich laufen hat"
        },
        "rounded": false,
        "buttons": [
          {
            "label": "Jetzt aufsetzen",
            "href": "https://app.enwork.de/sign-up"
          }
        ]
      },
      {
        "type": "large-media",
        "tinted": true,
        "mediaPosition": "left",
        "title": "Hochgradig automatisiert",
        "text": "enwork ist deine zentrale Plattform im Recruiting. Wir bieten dir automatsierte Prozesse, Synchronisation deiner Karriereseite, One-Klick-Bewerbungen und noch viel mehr. Alles aus einer Hand und mit allen deinen Services verknüpft. Mit enwork konzentrierst du dich wieder auf das Wesentliche deiner Arbeit.",
        "image": {
          "src": "https://static.enwork.de/illustrations/enwork-illustration-ongoing-process.svg",
          "alt": "Illustration einer stehenden, dunkelhäutigen Frau, mit einem zirkulierenden Gebilde im Hintergrund"
        },
        "rounded": false,
        "buttons": [
          {
            "label": "Jetzt automatisieren",
            "href": "https://app.enwork.de/sign-up"
          }
        ]
      },
      {
        "type": "image-grid",
        "tiny": false,
        "testimonials": true,
        "tinted": true,
        "title": "Erfolge unserer Nutzer",
        "subtitle": "enwork ist dafür da, dass neue Mitarbeiter einzustellen leicht von der Hand geht. Lass dich von denjenigen inspirieren, die wir bereits unterstützen durften.",
        "larger": false,
        "images": [
          {
            "midSrc": "https://static.enwork.de/testimonial-media/1-1-medium-testimonial-carsten.jpg",
            "src": "https://static.enwork.de/testimonial-media/1-1-high-testimonial-carsten.jpg",
            "alt": "Carsten Priebs, CIO Randstad Deutschland, sitzt an einem Tisch und lächelt",
            "title": "Carsten Priebs, CIO Randstad Deutschland GmbH & Co. KG",
            "subtitle": "enwork ist ein innovatives Startup, dessen Plattform einfache und schnelle Bewerbungsprozesse für jedermann ermöglicht."
          },
          {
            "midSrc": "https://static.enwork.de/testimonial-media/1-1-medium-testimonial-kim-simon.jpg",
            "src": "https://static.enwork.de/testimonial-media/1-1-high-testimonial-kim-simon.jpg",
            "alt": "Doktor Kim Simon Strunk, tätig an der Universität Passau, lächelnd",
            "title": "Dr. Kim Simon Strunk, Universität Passau",
            "subtitle": "Digitalisierung im Recruiting ist mehr, als nur PDF-Bewerbungen zu akzeptieren. enwork findet mit smartem Matching die perfekten Kandidaten für die passende Stelle."
          },
          {
            "midSrc": "https://static.enwork.de/testimonial-media/1-1-medium-testimonial-michael.jpg",
            "src": "https://static.enwork.de/testimonial-media/1-1-high-testimonial-michael.jpg",
            "alt": "Michael Schmitz, Geschäftsführer der variant GmbH, lächelnd",
            "title": "Michael Schmitz, Geschäftsführer variant GmbH",
            "subtitle": "enwork ermöglicht unserer Schreinerei ein professionelles Auftreten gegenüber möglichen Bewerbern. Ganz einfach und schnell aufgesetzt. Das Gesamtkonzept von enwork weiß zu überzeugen."
          }
        ]
      },
      {
        "type": "checked-items",
        "tinted": false,
        "title": "Immer an erster Stelle: Sicherheit und Datenschutz",
        "items": [
          "Keine eigene Datenschutzerklärung benötigt",
          "Verschlüsselter Datenaustausch",
          "Hosting in Deutschland",
          "Fortlaufende Überprüfung des Datenschutzes"
        ]
      }
    ],
    "sweep": {
      "title": "Matche deinen nächsten Mitarbeiter",
      "buttons": [
        {
          "label": "Jetzt loslegen",
          "href": "https://app.enwork.de/sign-up",
          "theme": "white"
        },
        {
          "label": "Demo anfordern",
          "href": "/request-demo",
          "theme": "white"
        }
      ],
      "tinted": false
    }
  }