{
    "unfurl": {
      "title": "enwork - Danke",
      "description": "Du hast dein persönliches Demo-System erfolgreich beantragt.",
      "header": "https://static.enwork.de/illustrations/enwork-illustration-everything-completed.svg",
      "headerLarge": "https://static.enwork.de/illustrations/enwork-illustration-everything-completed.svg",
      "url": "https://www.enwork.de/request-demo-thank-you",
      "labels": [
        {
          "label": "Unser #",
          "value": "teamenwork"
        }
      ],
      "type": "website",
      "noIndex": true
    },
    "sections": [
        {
            "type": "analytics-event",
            "gtmDataLayerPayload": {
                "event": "conversion",
                "fbconversion": "StartTrial",
                "properties": {
                  "conversionID": "791468273",
                  "conversionLabel": "ie-FCI6uj8YBEPGxs_kC",
                  "conversionValue": "1",
                  "currencyCode": "EUR"
                }
              }
          },
      {
        "type": "large-media",
        "tinted": false,
        "mediaPosition": "right",
        "title": "Demo-System erfolgreich beantragt",
        "largeText": true,
        "text": "Du hast dein persönliches und kostenfreies enwork Demo-System erfolgreich beantragt. Sobald wir es für dich aufgesetzt haben, erhältst du von uns eine E-Mail mit deinen Zugangsdaten zum Demo-System. Wir danken dir schon jetzt für dein Vertrauen und wünschen dir viel Spaß mit deinem enwork Demo-System.",
        "buttons": [
            {
                "label": "Zurück zu enwork",
                "href": "/product-company",
                "theme": "primary"
            }
        ],
        "image": {
          "src": "https://static.enwork.de/illustrations/enwork-illustration-everything-completed.svg"
        }
      }
    ],
    "sweep": {
      "title": "Das Team hinter enwork",
      "buttons": [
        {
          "label": "Jetzt mehr erfahren",
          "href": "/about-us",
          "theme": "white"
        }
      ],
      "tinted": false
    }
  }